Lab3/5-SRAM/sram.vcd
$date
	Sun Feb  7 21:27:00 2016
$end
$version
	Icarus Verilog
$end
$timescale
	1s
$end
$scope module testBench $end
$scope module sram1 $end
$var wire 10 ! address [9:0] $end
$var wire 16 " data [15:0] $end
$var wire 1 # enable $end
$var wire 1 $ readWrite $end
$upscope $end
$upscope $end
$enddefinitions $end
#0
$dumpvars
1$
1#
bx "
b0 !
$end
#80
b1 "
0#
#100
0$
#160
1$
#180
b1111111 "
#220
0$
#280
1$
#340
b1111110 "
b1 !
#380
0$
#440
1$
#500
b1111101 "
b10 !
#540
0$
#600
1$
#660
b1111100 "
b11 !
#700
0$
#760
1$
#820
b1111011 "
b100 !
#860
0$
#920
1$
#980
b1111010 "
b101 !
#1020
0$
#1080
1$
#1140
b1111001 "
b110 !
#1180
0$
#1240
1$
#1300
b1111000 "
b111 !
#1340
0$
#1400
1$
#1460
b1110111 "
b1000 !
#1500
0$
#1560
1$
#1620
b1110110 "
b1001 !
#1660
0$
#1720
1$
#1780
b1110101 "
b1010 !
#1820
0$
#1880
1$
#1940
b1110100 "
b1011 !
#1980
0$
#2040
1$
#2100
b1110011 "
b1100 !
#2140
0$
#2200
1$
#2260
b1110010 "
b1101 !
#2300
0$
#2360
1$
#2420
b1110001 "
b1110 !
#2460
0$
#2520
1$
#2580
b1110000 "
b1111 !
#2620
0$
#2680
1$
#2740
b1101111 "
b10000 !
#2780
0$
#2840
1$
#2900
b1101110 "
b10001 !
#2940
0$
#3000
1$
#3060
b1101101 "
b10010 !
#3100
0$
#3160
1$
#3220
b1101100 "
b10011 !
#3260
0$
#3320
1$
#3380
b1101011 "
b10100 !
#3420
0$
#3480
1$
#3540
b1101010 "
b10101 !
#3580
0$
#3640
1$
#3700
b1101001 "
b10110 !
#3740
0$
#3800
1$
#3860
b1101000 "
b10111 !
#3900
0$
#3960
1$
#4020
b1100111 "
b11000 !
#4060
0$
#4120
1$
#4180
b1100110 "
b11001 !
#4220
0$
#4280
1$
#4340
b1100101 "
b11010 !
#4380
0$
#4440
1$
#4500
b1100100 "
b11011 !
#4540
0$
#4600
1$
#4660
b1100011 "
b11100 !
#4700
0$
#4760
1$
#4820
b1100010 "
b11101 !
#4860
0$
#4920
1$
#4980
b1100001 "
b11110 !
#5020
0$
#5080
1$
#5140
b1100000 "
b11111 !
#5180
0$
#5240
1$
#5300
b1011111 "
b100000 !
#5340
0$
#5400
1$
#5460
b1011110 "
b100001 !
#5500
0$
#5560
1$
#5620
b1011101 "
b100010 !
#5660
0$
#5720
1$
#5780
b1011100 "
b100011 !
#5820
0$
#5880
1$
#5940
b1011011 "
b100100 !
#5980
0$
#6040
1$
#6100
b1011010 "
b100101 !
#6140
0$
#6200
1$
#6260
b1011001 "
b100110 !
#6300
0$
#6360
1$
#6420
b1011000 "
b100111 !
#6460
0$
#6520
1$
#6580
b1010111 "
b101000 !
#6620
0$
#6680
1$
#6740
b1010110 "
b101001 !
#6780
0$
#6840
1$
#6900
b1010101 "
b101010 !
#6940
0$
#7000
1$
#7060
b1010100 "
b101011 !
#7100
0$
#7160
1$
#7220
b1010011 "
b101100 !
#7260
0$
#7320
1$
#7380
b1010010 "
b101101 !
#7420
0$
#7480
1$
#7540
b1010001 "
b101110 !
#7580
0$
#7640
1$
#7700
b1010000 "
b101111 !
#7740
0$
#7800
1$
#7860
b1001111 "
b110000 !
#7900
0$
#7960
1$
#8020
b1001110 "
b110001 !
#8060
0$
#8120
1$
#8180
b1001101 "
b110010 !
#8220
0$
#8280
1$
#8340
b1001100 "
b110011 !
#8380
0$
#8440
1$
#8500
b1001011 "
b110100 !
#8540
0$
#8600
1$
#8660
b1001010 "
b110101 !
#8700
0$
#8760
1$
#8820
b1001001 "
b110110 !
#8860
0$
#8920
1$
#8980
b1001000 "
b110111 !
#9020
0$
#9080
1$
#9140
b1000111 "
b111000 !
#9180
0$
#9240
1$
#9300
b1000110 "
b111001 !
#9340
0$
#9400
1$
#9460
b1000101 "
b111010 !
#9500
0$
#9560
1$
#9620
b1000100 "
b111011 !
#9660
0$
#9720
1$
#9780
b1000011 "
b111100 !
#9820
0$
#9880
1$
#9940
b1000010 "
b111101 !
#9980
0$
#10040
1$
#10100
b1000001 "
b111110 !
#10140
0$
#10200
1$
#10260
b1000000 "
b111111 !
#10300
0$
#10360
1$
#10420
b111111 "
b1000000 !
#10460
0$
#10520
1$
#10580
b111110 "
b1000001 !
#10620
0$
#10680
1$
#10740
b111101 "
b1000010 !
#10780
0$
#10840
1$
#10900
b111100 "
b1000011 !
#10940
0$
#11000
1$
#11060
b111011 "
b1000100 !
#11100
0$
#11160
1$
#11220
b111010 "
b1000101 !
#11260
0$
#11320
1$
#11380
b111001 "
b1000110 !
#11420
0$
#11480
1$
#11540
b111000 "
b1000111 !
#11580
0$
#11640
1$
#11700
b110111 "
b1001000 !
#11740
0$
#11800
1$
#11860
b110110 "
b1001001 !
#11900
0$
#11960
1$
#12020
b110101 "
b1001010 !
#12060
0$
#12120
1$
#12180
b110100 "
b1001011 !
#12220
0$
#12280
1$
#12340
b110011 "
b1001100 !
#12380
0$
#12440
1$
#12500
b110010 "
b1001101 !
#12540
0$
#12600
1$
#12660
b110001 "
b1001110 !
#12700
0$
#12760
1$
#12820
b110000 "
b1001111 !
#12860
0$
#12920
1$
#12980
b101111 "
b1010000 !
#13020
0$
#13080
1$
#13140
b101110 "
b1010001 !
#13180
0$
#13240
1$
#13300
b101101 "
b1010010 !
#13340
0$
#13400
1$
#13460
b101100 "
b1010011 !
#13500
0$
#13560
1$
#13620
b101011 "
b1010100 !
#13660
0$
#13720
1$
#13780
b101010 "
b1010101 !
#13820
0$
#13880
1$
#13940
b101001 "
b1010110 !
#13980
0$
#14040
1$
#14100
b101000 "
b1010111 !
#14140
0$
#14200
1$
#14260
b100111 "
b1011000 !
#14300
0$
#14360
1$
#14420
b100110 "
b1011001 !
#14460
0$
#14520
1$
#14580
b100101 "
b1011010 !
#14620
0$
#14680
1$
#14740
b100100 "
b1011011 !
#14780
0$
#14840
1$
#14900
b100011 "
b1011100 !
#14940
0$
#15000
1$
#15060
b100010 "
b1011101 !
#15100
0$
#15160
1$
#15220
b100001 "
b1011110 !
#15260
0$
#15320
1$
#15380
b100000 "
b1011111 !
#15420
0$
#15480
1$
#15540
b11111 "
b1100000 !
#15580
0$
#15640
1$
#15700
b11110 "
b1100001 !
#15740
0$
#15800
1$
#15860
b11101 "
b1100010 !
#15900
0$
#15960
1$
#16020
b11100 "
b1100011 !
#16060
0$
#16120
1$
#16180
b11011 "
b1100100 !
#16220
0$
#16280
1$
#16340
b11010 "
b1100101 !
#16380
0$
#16440
1$
#16500
b11001 "
b1100110 !
#16540
0$
#16600
1$
#16660
b11000 "
b1100111 !
#16700
0$
#16760
1$
#16820
b10111 "
b1101000 !
#16860
0$
#16920
1$
#16980
b10110 "
b1101001 !
#17020
0$
#17080
1$
#17140
b10101 "
b1101010 !
#17180
0$
#17240
1$
#17300
b10100 "
b1101011 !
#17340
0$
#17400
1$
#17460
b10011 "
b1101100 !
#17500
0$
#17560
1$
#17620
b10010 "
b1101101 !
#17660
0$
#17720
1$
#17780
b10001 "
b1101110 !
#17820
0$
#17880
1$
#17940
b10000 "
b1101111 !
#17980
0$
#18040
1$
#18100
b1111 "
b1110000 !
#18140
0$
#18200
1$
#18260
b1110 "
b1110001 !
#18300
0$
#18360
1$
#18420
b1101 "
b1110010 !
#18460
0$
#18520
1$
#18580
b1100 "
b1110011 !
#18620
0$
#18680
1$
#18740
b1011 "
b1110100 !
#18780
0$
#18840
1$
#18900
b1010 "
b1110101 !
#18940
0$
#19000
1$
#19060
b1001 "
b1110110 !
#19100
0$
#19160
1$
#19220
b1000 "
b1110111 !
#19260
0$
#19320
1$
#19380
b111 "
b1111000 !
#19420
0$
#19480
1$
#19540
b110 "
b1111001 !
#19580
0$
#19640
1$
#19700
b101 "
b1111010 !
#19740
0$
#19800
1$
#19860
b100 "
b1111011 !
#19900
0$
#19960
1$
#20020
b11 "
b1111100 !
#20060
0$
#20120
1$
#20180
b10 "
b1111101 !
#20220
0$
#20280
1$
#20340
b1 "
b1111110 !
#20380
0$
#20440
1$
#20500
b0 "
b1111111 !
#20540
0$
#20600
1$
